C:\Users\Seda\workspace\File_transferer\src\main\java\com\home\seda\filetransferer\file\CreateFile.java
C:\Users\Seda\workspace\File_transferer\src\main\java\com\home\seda\filetransferer\images\CustomImage.java
C:\Users\Seda\workspace\File_transferer\src\main\java\com\home\seda\filetransferer\file\ComputeFileSize.java
C:\Users\Seda\workspace\File_transferer\src\main\java\com\home\seda\filetransferer\controllers\AppController.java
C:\Users\Seda\workspace\File_transferer\src\main\java\com\home\seda\filetransferer\file\FileSpecification.java
C:\Users\Seda\workspace\File_transferer\src\main\java\com\home\seda\filetransferer\images\Images.java
C:\Users\Seda\workspace\File_transferer\src\main\java\com\home\seda\filetransferer\os\CheckOperatingSystem.java
C:\Users\Seda\workspace\File_transferer\src\main\java\com\home\seda\filetransferer\TestWrote.java
C:\Users\Seda\workspace\File_transferer\src\main\java\com\home\seda\filetransferer\App.java
C:\Users\Seda\workspace\File_transferer\src\main\java\com\home\seda\filetransferer\file\FileManager.java
